﻿{
  "simple": {
    "value": "test"
  },
  "eqSample": {
    "value": {"$eq": "test"}
  },
  "inSample": {
    "value": {"$in": ["one", "two"]}
  },
  "orSample": {
    "$or": [{"field1": {"$eq": "one"}}, {"field2": {"$eq": "two"}}]
  },
  "countSample": {
    "items": {"$count": {"$gt": 0, "$gte": 1, "$eq": 2, "$neq": 3, "$lt": 4, "$lte": 5}}
  }
}